{
  "project_info": {
    "project_number": "133920369467",
    "project_id": "mockproject-manhnd41",
    "storage_bucket": "mockproject-manhnd41.appspot.com"
  },
  "client": [
    {
      "client_info": {
        "mobilesdk_app_id": "1:133920369467:android:909bd8a9105ec5a4fee51e",
        "android_client_info": {
          "package_name": "com.example.mockprojectnewsapp"
        }
      },
      "oauth_client": [
        {
          "client_id": "133920369467-n1b8l5cn61isi0uohboj40s4gktjv9p8.apps.googleusercontent.com",
          "client_type": 3
        }
      ],
      "api_key": [
        {
          "current_key": "AIzaSyA6tviaknNa2ii8MxyDhOG6irkD4g1wSFI"
        }
      ],
      "services": {
        "appinvite_service": {
          "other_platform_oauth_client": [
            {
              "client_id": "133920369467-n1b8l5cn61isi0uohboj40s4gktjv9p8.apps.googleusercontent.com",
              "client_type": 3
            }
          ]
        }
      }
    }
  ],
  "configuration_version": "1"
}